{
	"process_id" : 23212,
	"version" : "2019.1.2f1",
	"app_path" : "C:/Program Files/Unity/Hub/Editor/2019.1.2f1/Editor/Unity.exe",
	"app_contents_path" : "C:/Program Files/Unity/Hub/Editor/2019.1.2f1/Editor/Data"
}